# m h  dom mon dow   command
29,59 8-21 * * 0-6 (cd /home/pi/bell/bell_project/bigben; python bigben.py)
59 7 * * 0-6 (cd /home/pi/bell/bell_project/bigben; python bigben.py)
59 5,6 * * 1-5 (cd /home/pi/bell/bell_project/bigben; python bigben.py)
29 6,7 * * 1-5 (cd /home/pi/bell/bell_project/bigben; python bigben.py)
